\relax 
\providecommand\hyper@newdestlabel[2]{}
\@writefile{toc}{\contentsline {chapter}{\numberline {A}Summary of Equations}{14}{appendix.A}}
\@writefile{lof}{\addvspace {10\p@ }}
\@writefile{lot}{\addvspace {10\p@ }}
\@writefile{toc}{\contentsline {section}{\numberline {A.1}Cartesian}{14}{section.A.1}}
\@writefile{toc}{\contentsline {section}{\numberline {A.2}Cylindrical}{14}{section.A.2}}
\@setckpt{back-matter/appendix-1}{
\setcounter{page}{15}
\setcounter{equation}{0}
\setcounter{enumi}{0}
\setcounter{enumii}{0}
\setcounter{enumiii}{0}
\setcounter{enumiv}{0}
\setcounter{footnote}{0}
\setcounter{mpfootnote}{0}
\setcounter{part}{0}
\setcounter{chapter}{1}
\setcounter{section}{2}
\setcounter{subsection}{0}
\setcounter{subsubsection}{0}
\setcounter{paragraph}{0}
\setcounter{subparagraph}{0}
\setcounter{figure}{0}
\setcounter{table}{0}
\setcounter{parentequation}{0}
\setcounter{Item}{0}
\setcounter{Hfootnote}{0}
\setcounter{bookmark@seq@number}{25}
\setcounter{theorem}{0}
\setcounter{corollary}{0}
\setcounter{lemma}{0}
\setcounter{float@type}{4}
\setcounter{NAT@ctr}{4}
\setcounter{ContinuedFloat}{0}
\setcounter{KVtest}{1}
\setcounter{subfigure}{0}
\setcounter{subfigure@save}{3}
\setcounter{lofdepth}{1}
\setcounter{subtable}{0}
\setcounter{subtable@save}{0}
\setcounter{lotdepth}{1}
\setcounter{section@level}{1}
}
